%YAML 1.1
%TAG !u! tag:unity3d.com,2011:
--- !u!1001 &100100000
Prefab:
  m_ObjectHideFlags: 1
  serializedVersion: 2
  m_Modification:
    m_TransformParent: {fileID: 0}
    m_Modifications: []
    m_RemovedComponents: []
  m_ParentPrefab: {fileID: 0}
  m_RootGameObject: {fileID: 1193604590634534}
  m_IsPrefabParent: 1
--- !u!1 &1193604590634534
GameObject:
  m_ObjectHideFlags: 0
  m_PrefabParentObject: {fileID: 0}
  m_PrefabInternal: {fileID: 100100000}
  serializedVersion: 5
  m_Component:
  - component: {fileID: 4008710899534738}
  - component: {fileID: 114759278027964006}
  m_Layer: 0
  m_Name: 003
  m_TagString: Untagged
  m_Icon: {fileID: 0}
  m_NavMeshLayer: 0
  m_StaticEditorFlags: 0
  m_IsActive: 1
--- !u!4 &4008710899534738
Transform:
  m_ObjectHideFlags: 1
  m_PrefabParentObject: {fileID: 0}
  m_PrefabInternal: {fileID: 100100000}
  m_GameObject: {fileID: 1193604590634534}
  m_LocalRotation: {x: 0, y: 0, z: 0, w: 1}
  m_LocalPosition: {x: 0, y: 0, z: 0}
  m_LocalScale: {x: 1, y: 1, z: 1}
  m_Children: []
  m_Father: {fileID: 0}
  m_RootOrder: 0
  m_LocalEulerAnglesHint: {x: 0, y: 0, z: 0}
--- !u!114 &114759278027964006
MonoBehaviour:
  m_ObjectHideFlags: 1
  m_PrefabParentObject: {fileID: 0}
  m_PrefabInternal: {fileID: 100100000}
  m_GameObject: {fileID: 1193604590634534}
  m_Enabled: 1
  m_EditorHideFlags: 0
  m_Script: {fileID: 11500000, guid: ecb99396c9b2543be87bc72f833058f8, type: 3}
  m_Name: 
  m_EditorClassIdentifier: 
  itemsTexture: {fileID: 2800000, guid: 9c16a58990b3844fb9ff2fc89ff4157e, type: 3}
  tilesTexture: {fileID: 2800000, guid: 4c585f91ddfac42ef8359217a2a4064e, type: 3}
  time: 90
  description: Place the blue and red crystals on their matching circles.
  background: {fileID: 21300000, guid: 3821c36d8ef034c98be92a76868f1536, type: 3}
  screenshot: {fileID: 21300000, guid: 109d51066529a46989040f68648ccb35, type: 3}
  cameraSizeAddition: 0
