%YAML 1.1
%TAG !u! tag:unity3d.com,2011:
--- !u!1001 &100100000
Prefab:
  m_ObjectHideFlags: 1
  serializedVersion: 2
  m_Modification:
    m_TransformParent: {fileID: 0}
    m_Modifications: []
    m_RemovedComponents: []
  m_ParentPrefab: {fileID: 0}
  m_RootGameObject: {fileID: 1193604590634534}
  m_IsPrefabParent: 1
--- !u!1 &1193604590634534
GameObject:
  m_ObjectHideFlags: 0
  m_PrefabParentObject: {fileID: 0}
  m_PrefabInternal: {fileID: 100100000}
  serializedVersion: 5
  m_Component:
  - component: {fileID: 4008710899534738}
  - component: {fileID: 114163486822318450}
  m_Layer: 0
  m_Name: 022
  m_TagString: Untagged
  m_Icon: {fileID: 0}
  m_NavMeshLayer: 0
  m_StaticEditorFlags: 0
  m_IsActive: 1
--- !u!4 &4008710899534738
Transform:
  m_ObjectHideFlags: 1
  m_PrefabParentObject: {fileID: 0}
  m_PrefabInternal: {fileID: 100100000}
  m_GameObject: {fileID: 1193604590634534}
  m_LocalRotation: {x: 0, y: 0, z: 0, w: 1}
  m_LocalPosition: {x: 0, y: 0, z: 0}
  m_LocalScale: {x: 1, y: 1, z: 1}
  m_Children: []
  m_Father: {fileID: 0}
  m_RootOrder: 0
  m_LocalEulerAnglesHint: {x: 0, y: 0, z: 0}
--- !u!114 &114163486822318450
MonoBehaviour:
  m_ObjectHideFlags: 1
  m_PrefabParentObject: {fileID: 0}
  m_PrefabInternal: {fileID: 100100000}
  m_GameObject: {fileID: 1193604590634534}
  m_Enabled: 1
  m_EditorHideFlags: 0
  m_Script: {fileID: 11500000, guid: 4676e11429505410fa210254349c2af9, type: 3}
  m_Name: 
  m_EditorClassIdentifier: 
  itemsTexture: {fileID: 2800000, guid: be152388d02104fc89693958a3d45609, type: 3}
  tilesTexture: {fileID: 2800000, guid: 67c603a84add8493696dc448b1b50813, type: 3}
  time: 120
  description: The wooden crates will move only when being pushed.
  background: {fileID: 21300000, guid: 11d61265253ee474491b6bbfd27f9afc, type: 3}
  screenshot: {fileID: 21300000, guid: 42d8df25a1c384664a125aa522890841, type: 3}
  cameraSizeAddition: 0
